{
  "list": [
    {
      "id": 1,
      "name": "Halifa",
      "age": "31",
      "community": "Sunni",
      "height": "4ft 4in (133cm)",
      "address": "Mumbai, India-Permanent Resident",
      "work": "Accountant",
      "degree": "Bachelors Degree",
      "country": "India",
      "continent": "Asian",
      "religion": "Practicing Muslim, Prays Everyday, Eats Halal",
      "marriageDetails": "Never Married, Wants to get married in 1-2 Years",
      "willingToAbroad": "Willing to move abroad",
      "consumeDrugs": "Doesn't Drink Alcohol and Doesn't Smoke",
      "about": "Member hasn't shared details about herself yet!",
      "imageUrl": "https://i.pinimg.com/474x/98/b2/f8/98b2f8b7ecfa890de4742f653a67d154.jpg"
    },
    {
      "id": 2,
      "name": "Amira",
      "age": "30",
      "community": "sheikh",
      "height": "5ft 0in (152.4cm)",
      "address": "Chennai, India-Permanent Resident",
      "work": "software developer",
      "degree": "Bachelors Degree",
      "country": "India",
      "continent": "Asian",
      "religion": "Practicing Muslim, Prays Everyday, Eats Halal",
      "marriageDetails": "Wants to get married in 6 months",
      "willingToAbroad": "Not Interested in moving abroad",
      "consumeDrugs": "Doesn't Drink Alcohol and Doesn't Smoke",
      "about": "LOVE is Everything in this World",
      "imageUrl": "https://www.imagediamond.com/blog/wp-content/uploads/2019/12/muslimgirldp3.jpg"
    },
    {
      "id": 3,
      "name": "Afaf ",
      "age": "26",
      "community": "sheikh",
      "height": "4ft 5in (137.16cm)",
      "address": "Puducherry, India-Permanent Resident",
      "work": "Marketing and advertising",
      "degree": "Master Degree",
      "country": "India",
      "continent": "Asian",
      "religion": "Practicing Muslim, Prays Everyday, Eats Halal",
      "marriageDetails": "Wants to get married after 2 Years",
      "willingToAbroad": "Willing to move abroad",
      "consumeDrugs": "Doesn't Drink Alcohol and Doesn't Smoke",
      "about": "Attitude Matters"
    },
    {
      "id": 4,
      "name": "Aamna",
      "age": "25",
      "community": "Sunni",
      "height": "4ft 7in (143.256cm)",
      "address": "Chennai, India-Permanent Resident",
      "work": "Investment banking",
      "degree": "Bachelors Degree",
      "country": "India",
      "continent": "Asian",
      "religion": "Practicing Muslim, Prays Everyday, Eats Halal",
      "marriageDetails": "Never Married, Wants to get married in 2-3 Years",
      "willingToAbroad": "Willing to move abroad",
      "consumeDrugs": "Doesn't Drink Alcohol and Doesn't Smoke",
      "about": "Small things makes big differences!"
    },
    {
      "id": 5,
      "name": "Aqsa",
      "age": "27",
      "community": "sheikh",
      "height": "5ft 0in (152.4cm)",
      "address": "Chennai, India-Permanent Resident",
      "work": "Management consultancy",
      "degree": "Master Degree",
      "country": "India",
      "continent": "Asian",
      "religion": "Practicing Muslim, Prays Everyday, Eats Halal",
      "marriageDetails": "Never Married, Wants to get married in 1 Year",
      "willingToAbroad": "Not Interested in moving abroad",
      "consumeDrugs": "Doesn't Drink Alcohol and Doesn't Smoke",
      "about": "Beleive in yourself"
    },
    {
      "id": 6,
      "name": "Bahija",
      "age": "30",
      "community": "Sunni",
      "height": "4ft 4in (133cm)",
      "address": "Mumbai, India-Permanent Resident",
      "work": "Teaching",
      "degree": "Bachelors Degree",
      "country": "India",
      "continent": "Asian",
      "religion": "Practicing Muslim, Prays Everyday, Eats Halal",
      "marriageDetails": "Never Married, Wants to get married in 6 months",
      "willingToAbroad": "Not Interested in moving abroad",
      "consumeDrugs": "Doesn't Drink Alcohol and Doesn't Smoke",
      "about": "Optimistic and Independent"
    },
    {
      "id": 7,
      "name": "Daneen",
      "age": "28",
      "community": "sheikh",
      "height": "4ft 0in (121.92cm)",
      "address": "Chennai, India-Permanent Resident",
      "work": "Sales",
      "degree": "Bachelors Degree",
      "country": "India",
      "continent": "Asian",
      "religion": "Practicing Muslim, Prays Everyday, Eats Halal",
      "marriageDetails": "Never Married, Wants to get married in 1-2 Years",
      "willingToAbroad": "Willing to move abroad",
      "consumeDrugs": "Doesn't Drink Alcohol and Doesn't Smoke",
      "about": "Member hasn't shared details about herself yet!"
    },
    {
      "id": 8,
      "name": "Nilofer",
      "age": "24",
      "community": "sheikh",
      "height": "6ft 0in (182.88cm)",
      "address": "Puducherry, India-Permanent Resident",
      "work": "Teaching",
      "degree": "Bachelors Degree",
      "country": "India",
      "continent": "Asian",
      "religion": "Practicing Muslim, Prays Everyday, Eats Halal",
      "marriageDetails": "Never Married, Wants to get married in 1-2 Years",
      "willingToAbroad": "Willing to move abroad",
      "consumeDrugs": "Doesn't Drink Alcohol and Doesn't Smoke",
      "about": "Optimistic and Independent"
    },
    {
      "id": 9,
      "name": "Rujina",
      "age": "27",
      "community": "Sunni",
      "height": "4ft 4in (133cm)",
      "address": "Villupuram, India-Permanent Resident",
      "work": "software developer",
      "degree": "Bachelors Degree",
      "country": "India",
      "continent": "Asian",
      "religion": "Practicing Muslim, Prays Everyday, Eats Halal",
      "marriageDetails": "Never Married, Wants to get married in 1-2 Years",
      "willingToAbroad": "Willing to move abroad",
      "consumeDrugs": "Doesn't Drink Alcohol and Doesn't Smoke",
      "about": "Member hasn't shared details about herself yet!"
    },
    {
      "id": 10,
      "name": "Hadhira ",
      "age": "26",
      "community": "Sunni",
      "height": "4ft 4in (133cm)",
      "address": "Chennai, India-Permanent Resident",
      "work": "Sales",
      "degree": "Bachelors Degree",
      "country": "India",
      "continent": "Asian",
      "religion": "Practicing Muslim, Prays Everyday, Eats Halal",
      "marriageDetails": "Never Married, Wants to get married in 1-2 Years",
      "willingToAbroad": "Willing to move abroad",
      "consumeDrugs": "Doesn't Drink Alcohol and Doesn't Smoke",
      "about": "LOVE is Everything in this World"
    }
  ]
}